Area Abbreviation,count
HTI,120
BRB,121
LVA,136
POL,136
JAM,119
ZMB,120
BRA,137
ARM,133
MOZ,114
CUB,137
JOR,127
FRA,140
BRN,120
COD,120
BOL,122
URY,124
ETH,116
ATG,117
ITA,148
UKR,134
CMR,125
GHA,120
NER,118
GTM,130
SEN,120
GUY,119
LCA,115
HRV,129
VCT,109
QAT,134
GBR,143
GMB,108
PRY,122
ARE,121
CRI,129
TJK,102
BMU,103
NPL,121
UGA,127
VUT,96
AZE,240
AUS,128
MLI,116
MLT,130
KNA,99
MEX,133
AFG,83
BGD,123
DMA,111
YEM,119
BLR,131
MNG,114
SVK,130
STP,91
HUN,142
TKM,90
NZL,134
DJI,107
THA,261
IRQ,120
NOR,140
VEN,130
GNB,91
TLS,86
BWA,125
FIN,133
SAU,130
BFA,115
DOM,112
ALB,123
TGO,115
NIC,129
SUR,116
BIH,124
KWT,122
MWI,120
FJI,125
MRT,116
CAF,109
PER,132
NLD,141
PAK,133
LUX,127
NCL,129
TUR,128
RWA,108
SLE,111
MNE,118
AUT,139
CPV,106
USA,141
MDG,125
MAR,129
SDN,104
GEO,133
OMN,124
PAN,130
VNM,109
CIV,119
LBR,99
KOR,97
LSO,75
ZAF,140
ISR,135
PRT,134
NAM,121
TUN,126
IRN,120
LTU,140
CYP,135
MYS,134
ZWE,121
CHL,128
MUS,119
CAN,140
COL,132
RUS,137
KIR,94
ROU,139
ARG,123
BLZ,112
DNK,139
SWZ,117
TTO,117
ESP,150
KEN,127
WSM,108
LKA,127
MDV,104
EST,135
LBN,129
AGO,109
SLB,100
IRL,136
SWE,142
GAB,120
NGA,131
HND,132
SVN,132
SLV,130
PYF,121
ECU,134
GRD,120
GRC,143
GIN,112
IND,134
KAZ,141
KHM,116
TCD,103
MMR,112
BEL,136
CHN,541
IDN,126
DZA,124
DEU,147
MDA,130
BGR,134
UZB,123
JPN,143
SRB,127
TZA,129
KGZ,124
LAO,102
CHE,141
CZE,129
PHL,142
BEN,117
EGY,134
ISL,125
